{
  "restApiRoot": "/api",
  "host": "0.0.0.0",
  "port": 3001,
  "remoting": {
    "context": false,
    "rest": {
      "handleErrors": false,
      "normalizeHttpPath": false,
      "xml": false
    },
    "json": {
      "strict": false,
      "limit": "100kb"
    },
    "urlencoded": {
      "extended": true,
      "limit": "100kb"
    },
    "cors": true
  },
  "legacyExplorer": false,
  "logoutSessionsOnSensitiveChanges": true
}
